{
  "city": [
    {
      "id": 1,
      "name": "Москва"
    },
    {
      "id": 2,
      "name": "Санкт-Петербург"
    },
    {
      "id": 3,
      "name": "Новосибирск"
    },
    {
      "id": 4,
      "name": "Екатеринбург"
    },
    {
      "id": 5,
      "name": "Нижний Новгород"
    },
    {
      "id": 6,
      "name": "Великий Новгород"
    },
    {
      "id": 7,
      "name": "Челябинск"
    },
    {
      "id": 8,
      "name": "Омск"
    },
    {
      "name": "Казань",
      "id": 9
    },
    {
      "name": "Томск",
      "id": 10
    }
  ],
  "ide": [
    {
      "id": 1,
      "name": "WebStorm"
    },
    {
      "id": 2,
      "name": "Visual Studio Code"
    },
    {
      "id": 3,
      "name": "Sublime Text"
    },
    {
      "id": 4,
      "name": "Atom"
    },
    {
      "id": 5,
      "name": "Notepad++"
    },
    {
      "id": 6,
      "name": "Vim"
    },
    {
      "id": 7,
      "name": "PHPStorm"
    }
  ]
}